<?xml version="1.0" standalone="no"?>
<!DOCTYPE svg PUBLIC "-//W3C//DTD SVG 20010904//EN"
 "http://www.w3.org/TR/2001/REC-SVG-20010904/DTD/svg10.dtd">
<svg version="1.0" xmlns="http://www.w3.org/2000/svg"
 width="96.000000pt" height="96.000000pt" viewBox="0 0 96.000000 96.000000"
 preserveAspectRatio="xMidYMid meet">
<metadata>
Created by potrace 1.11, written by Peter Selinger 2001-2013
</metadata>
<g transform="translate(0.000000,96.000000) scale(0.100000,-0.100000)"
fill="#000000" stroke="none">
<path d="M367 805 c-127 -44 -203 -152 -213 -304 -5 -63 0 -95 24 -189 38
-143 34 -174 -32 -247 -19 -22 -36 -46 -36 -52 0 -10 89 -13 411 -13 l410 0
-22 39 c-12 22 -34 53 -48 68 -76 84 -79 89 -72 135 3 24 6 108 5 188 0 135
-2 149 -25 200 -55 116 -158 183 -289 186 -43 2 -91 -3 -113 -11z"/>
</g>
</svg>
